//lit1
//------------------------------
0 - SW1DA15
	1 - RF1 - test
	2 - RF2
	
1 - SW1DA16
	1 - RF1 
	2 - RF2	- test
	
2 - SW1DA18
	1 - RF1 
	2 - RF2	
	3 - RF3 
	4 - RF4	- test

3 - SW1DA19
	1 - RF1 
	2 - RF2	- test

4 - SW1DA29
	1 - RF1 
	2 - RF2	- test

5 - SW1DA30
	1 - RF1 
	2 - RF2	
	3 - RF3 
	4 - RF4	- test
	
6 - SW1DA34
	1 - RF1 
	2 - RF2	

7 - SW1DA40
	1 - RF1 - test
	2 - RF2	
//lit2
//------------------------------

0 - SW2DA3
	1 - RF1 
	2 - RF2	- test
	3 - RF3 
	4 - RF4	
	
1 - SW2DA11
	1 - RF1 - test
	2 - RF2	
	3 - RF3 
	4 - RF4	
	
2 - SW2DA14
	1 - RF1 	
	2 - RF2	- test	
	
3 - SW2DA21
	1 - RF1
	2 - RF2 - test	
	3 - RF3 
	4 - RF4		
	
4 - SW2DA29
	1 - RF1 - test
	2 - RF2	
	3 - RF3 
	4 - RF4	
	
5 - SW2DA32
	1 - RF1 - test
	2 - RF2		
	
	
	
	
	
	
	
	
	
	
	
	
	
	
	
	